{
    "log": {
        "loglevel": "warning"
    },
    "inbound": {
        "listen": "127.0.0.1",
        "port": 8001,
        "protocol": "http",
        "settings": {
            "auth": "noauth",
            "udp": true,
            "ip": "127.0.0.1"
        }
    },
    "outbound": {
        "protocol": "vmess",
        "settings": {
            "vnext": [
                {
                    "address": "docker.n0trace.online",
                    "port": 29659,
                    "users": [
                        {
                            "id": "db8697da-6276-ad4e-ed47-433622a58984",
                            "level": 1,
                            "alterId": 100
                        }
                    ]
                }
            ]
        }
    },
    "outboundDetour": [
        {
            "protocol": "freedom",
            "settings": {},
            "tag": "direct"
        }
    ],
    "routing": {
        "strategy": "rules",
        "settings": {
            "domainStrategy": "IPOnDemand",
            "rules": [
                {
                    "type": "field",
                    "outboundTag": "direct",
                    "domain": [
                        "geosite:cn"
                    ]
                },
                {
                    "type": "chinaip",
                    "outboundTag": "direct",
                    "ip": [
                        "geoip:cn"
                    ]
                }
            ]
        }
    }
}