{
    "log": {
        "access": "/var/log/v2ray/access.log",
        "error": "/var/log/v2ray/error.log",
        "loglevel": "warning"
    },
    "inbound": {
        "port": 29659,
        "protocol": "vmess",
        "settings": {
            "clients": [
                {
                    "id": "db8697da-6276-ad4e-ed47-433622a58984",
                    "level": 1,
                    "alterId": 100
                },
                {
                    "id": "5d82b627-a188-a351-9faf-621e7be4971b",
                    "level": 1,
                    "alterId": 100
                },
                {
                    "id": "1d6fde13-93e1-207d-4915-5b1f49481c18",
                    "level": 1,
                    "alterId": 100
                }
            ]
        },
        "sniffing": {
            "enabled": true,
            "destOverride": [
                "http",
                "tls"
            ]
        }
    },
    "outbound": {
        "protocol": "freedom",
        "settings": {}
    },
    "inboundDetour": [],
    "outboundDetour": [
        {
            "protocol": "blackhole",
            "settings": {},
            "tag": "blocked"
        }
    ],
    "routing": {
        "strategy": "rules",
        "settings": {
            "rules": [
                {
                    "type": "field",
                    "outboundTag": "block",
                    "domain": [
                        "ext:h2y.dat:mad",
                        "ext:h2y.dat:ad"
                    ]
                },
                {
                    "type": "field",
                    "outboundTag": "proxy",
                    "domain": [
                        "ext:h2y.dat:gfw"
                    ]
                }
            ]
        }
    }
}